module backuper-monitoring

go 1.19

require github.com/go-yaml/yaml v2.1.0+incompatible

require (
	gopkg.in/check.v1 v1.0.0-20201130134442-10cb98267c6c // indirect
	gopkg.in/yaml.v2 v2.4.0 // indirect
)
